{
  "up": {
    "action": "changeColumn",
    "tableName": "peminjaman",
    "columnName": "tanggal_pengembalian",
    "type": "date",
    "allowNull": false
  },
  "down": {
    "action": "changeColumn",
    "tableName": "peminjaman",
    "columnName": "tanggal_pengembalian",
    "type": "datetime",
    "options": null,
    "allowNull": false,
    "defaultValue": null
  }
}