{
  "up": {
    "action": "changeColumn",
    "tableName": "penulis",
    "columnName": "alamat_penulis",
    "type": "string",
    "options": [
      255
    ],
    "allowNull": false
  },
  "down": {
    "action": "changeColumn",
    "tableName": "penulis",
    "columnName": "alamat_penulis",
    "type": "string",
    "options": [
      255
    ],
    "allowNull": true,
    "defaultValue": null
  }
}