{
  "up": {
    "action": "addColumn",
    "tableName": "peminjaman",
    "columnName": "tanggal_pengembalian",
    "type": "date",
    "allowNull": true
  },
  "down": {
    "action": "removeColumn",
    "tableName": "peminjaman",
    "columnName": "tanggal_pengembalian"
  }
}